5.723525707114e+02
5.710679596664e+02
3.219917601051e+02
2.391623187092e+02
8.847063453840e-02
-1.964247928446e-01
-1.002452304080e-03
-2.659565956333e-03

-4.160241265500e-01
1.091742937114e-01
4.150694365043e-02
-8.193680367365e+01
-7.542579041693e+01
4.020891328389e+02

-4.160241265500e-01
1.091742937114e-01
4.150694365043e-02
-8.193680367365e+01
-7.542579041693e+01
4.020891328389e+02

-4.160241265500e-01
1.091742937114e-01
4.150694365043e-02
-8.193680367365e+01
-7.542579041693e+01
4.020891328389e+02

-4.160241265500e-01
1.091742937114e-01
4.150694365043e-02
-8.193680367365e+01
-7.542579041693e+01
4.020891328389e+02

-4.160241265500e-01
1.091742937114e-01
4.150694365043e-02
-8.193680367365e+01
-7.542579041693e+01
4.020891328389e+02

