1.110827598262e+02	7.375738420241e+01
1.522661201504e+02	7.470293007206e+01
1.907856069601e+02	7.547073951213e+01
2.270080342911e+02	7.617380929999e+01
2.611312225519e+02	7.683504152985e+01
2.931366494630e+02	7.736299931342e+01
3.235520160289e+02	7.783339923330e+01
3.524549202482e+02	7.826365480306e+01
3.795430427358e+02	7.867554492981e+01
4.055958841630e+02	7.889106820026e+01
1.160256201478e+02	1.143016717309e+02
1.567827187541e+02	1.139778157413e+02
1.949999138260e+02	1.135241592442e+02
2.309611319553e+02	1.130640838654e+02
2.646855302420e+02	1.126902519732e+02
2.962717628005e+02	1.122488845001e+02
3.264108821991e+02	1.117641580633e+02
3.550913916390e+02	1.112869747631e+02
3.820600903534e+02	1.108469442326e+02
4.078118300061e+02	1.103185416804e+02
1.208615728465e+02	1.544797609061e+02
1.613264080231e+02	1.528107253535e+02
1.991561615683e+02	1.511866773422e+02
2.346870754903e+02	1.496424929535e+02
2.682218918850e+02	1.481501385497e+02
2.994056269261e+02	1.467426740451e+02
3.291863458626e+02	1.453817184918e+02
3.575822870443e+02	1.440210225094e+02
3.842346534880e+02	1.427692382706e+02
4.099656440298e+02	1.414740500788e+02
1.255444266372e+02	1.938550175213e+02
1.656201565800e+02	1.909397706731e+02
2.030448466512e+02	1.881336004376e+02
2.382267280340e+02	1.855087806836e+02
2.715431004401e+02	1.829725121251e+02
3.024422584716e+02	1.806063951775e+02
3.319892218189e+02	1.783319523267e+02
3.600608411982e+02	1.761583252809e+02
3.865737757875e+02	1.741068808765e+02
4.120647163526e+02	1.720511986051e+02
1.301556382899e+02	2.327332760527e+02
1.698581405501e+02	2.285568539719e+02
2.069061918269e+02	2.246235925016e+02
2.417933417875e+02	2.209188623783e+02
2.748051149630e+02	2.174042380342e+02
3.054427239754e+02	2.140992978341e+02
3.348307464163e+02	2.109411914779e+02
3.626395587991e+02	2.079225437816e+02
3.889386182480e+02	2.050632263407e+02
4.141096318910e+02	2.023328799575e+02
1.347203807377e+02	2.714429280701e+02
1.740050158486e+02	2.660466692332e+02
2.107244517746e+02	2.609779495830e+02
2.452760869715e+02	2.561833929978e+02
2.779621714587e+02	2.517117565474e+02
3.084294412956e+02	2.474435856023e+02
3.375786795065e+02	2.434388402061e+02
3.652083686475e+02	2.396347737902e+02
3.912006125678e+02	2.359787028015e+02
4.160830644830e+02	2.325739535831e+02
1.391591793327e+02	3.095487477092e+02
1.780750018210e+02	3.029360503095e+02
2.144445344974e+02	2.967143297224e+02
2.486377681736e+02	2.908828617725e+02
2.810518253793e+02	2.854511544001e+02
3.113647113118e+02	2.802752205772e+02
3.402571320082e+02	2.754335510723e+02
3.677507481999e+02	2.708530669300e+02
3.936892341971e+02	2.664791225446e+02
4.183938595656e+02	2.623313993909e+02
