2.395357285773e+02	1.514578526364e+02
2.777082026720e+02	1.623371213372e+02
3.139867651789e+02	1.726356203837e+02
3.485202438548e+02	1.823536209650e+02
3.812565918299e+02	1.915018116723e+02
4.126798361126e+02	2.003511494237e+02
4.426739823934e+02	2.087218819591e+02
4.716240134625e+02	2.168047211456e+02
4.995616834182e+02	2.246928875675e+02
5.264151113139e+02	2.322995142760e+02
2.283240553231e+02	1.901512386977e+02
2.662178232634e+02	1.998348832607e+02
3.022689962803e+02	2.091079558344e+02
3.365512565604e+02	2.177881399499e+02
3.691008847391e+02	2.259625325668e+02
4.003904076810e+02	2.340080787918e+02
4.302561762302e+02	2.414984428159e+02
4.588794541378e+02	2.487096233894e+02
4.866145493386e+02	2.557909755654e+02
5.133833604664e+02	2.627054492664e+02
2.174413134086e+02	2.279679342945e+02
2.550852713903e+02	2.365868418552e+02
2.907521627337e+02	2.446616803717e+02
3.247856102182e+02	2.522958255546e+02
3.571727323336e+02	2.595888018671e+02
3.883071711078e+02	2.668321609843e+02
4.180173646357e+02	2.735299385321e+02
4.465600683906e+02	2.799775012153e+02
4.740884274192e+02	2.863335281606e+02
5.006559484342e+02	2.925042767364e+02
2.069166143281e+02	2.642878750453e+02
2.442279931744e+02	2.717772238999e+02
2.796391464763e+02	2.788283858832e+02
3.134987161385e+02	2.855719299976e+02
3.457770131236e+02	2.921670035410e+02
3.767148478251e+02	2.985871623445e+02
4.062422033182e+02	3.044752198525e+02
4.346796143511e+02	3.102468272824e+02
4.620648335790e+02	3.159062390550e+02
4.885437962707e+02	3.214448915607e+02
1.965686436864e+02	2.995381217963e+02
2.335846006827e+02	3.057978212665e+02
2.688196816609e+02	3.120669166902e+02
3.025430601713e+02	3.180290691569e+02
3.346731554095e+02	3.238384502292e+02
3.654592464912e+02	3.295386044114e+02
3.950394514502e+02	3.348212088269e+02
4.233717810662e+02	3.399430623162e+02
4.505981218412e+02	3.448613334455e+02
4.768876845157e+02	3.497420221970e+02
1.864791503667e+02	3.340912440255e+02
2.232703157210e+02	3.394069502312e+02
2.582947712209e+02	3.448298422896e+02
2.918313572003e+02	3.499378190512e+02
3.237150891207e+02	3.547969793834e+02
3.543519070267e+02	3.597189491144e+02
3.838236181483e+02	3.644528620762e+02
4.118951326058e+02	3.687388807167e+02
4.390420696675e+02	3.730742865258e+02
4.654263082698e+02	3.775317756258e+02
1.766076529049e+02	3.675896353663e+02
2.131781900241e+02	3.719238572979e+02
2.480335797810e+02	3.766082588534e+02
2.814617971161e+02	3.810073266870e+02
3.131771164645e+02	3.851023272990e+02
3.435438254871e+02	3.891052769803e+02
3.728666083344e+02	3.931276688752e+02
4.009090216431e+02	3.969398454152e+02
4.279147415950e+02	4.006212059628e+02
4.541678932222e+02	4.044580292497e+02
