1.108304195804e+02	7.368706293706e+01
1.521776061776e+02	7.469305019305e+01
1.906402569593e+02	7.542826552463e+01
2.268341232227e+02	7.615876777251e+01
2.610000000000e+02	7.689062500000e+01
2.930227920228e+02	7.748433048433e+01
3.233664596273e+02	7.769565217391e+01
3.524290540541e+02	7.820608108108e+01
3.795187969925e+02	7.855639097744e+01
4.055019762846e+02	7.883794466403e+01
1.158571428571e+02	1.143227513228e+02
1.565859375000e+02	1.139589843750e+02
1.947891304348e+02	1.135021739130e+02
2.307716346154e+02	1.130000000000e+02
2.645481283422e+02	1.126711229947e+02
2.961773255814e+02	1.122761627907e+02
3.262453416149e+02	1.117267080745e+02
3.549931271478e+02	1.112749140893e+02
3.820148698885e+02	1.108401486989e+02
4.077429718876e+02	1.102771084337e+02
1.206971326165e+02	1.543763440860e+02
1.611013916501e+02	1.527733598410e+02
1.989556541020e+02	1.512261640798e+02
2.344817518248e+02	1.496204379562e+02
2.680695187166e+02	1.481149732620e+02
2.992670623145e+02	1.466735905045e+02
3.290474683544e+02	1.453354430380e+02
3.574152249135e+02	1.440138408304e+02
3.841541353383e+02	1.426616541353e+02
4.098629032258e+02	1.415040322581e+02
1.253277777778e+02	1.938481481481e+02
1.654585858586e+02	1.909272727273e+02
2.029406392694e+02	1.881529680365e+02
2.380623441397e+02	1.853990024938e+02
2.713829201102e+02	1.829063360882e+02
3.023363363363e+02	1.806246246246e+02
3.318263665595e+02	1.782540192926e+02
3.599644128114e+02	1.761281138790e+02
3.864765625000e+02	1.740625000000e+02
4.119875000000e+02	1.720375000000e+02
1.299554730983e+02	2.327922077922e+02
1.697448559671e+02	2.285246913580e+02
2.068109339408e+02	2.245945330296e+02
2.415461346633e+02	2.209326683292e+02
2.746044568245e+02	2.173398328691e+02
3.051876923077e+02	2.140584615385e+02
3.346196721311e+02	2.109704918033e+02
3.625309090909e+02	2.079600000000e+02
3.887764705882e+02	2.050588235294e+02
4.140384615385e+02	2.022692307692e+02
1.344433962264e+02	2.714283018868e+02
1.738586278586e+02	2.660083160083e+02
2.106013986014e+02	2.609324009324e+02
2.451250000000e+02	2.561147959184e+02
2.777617728532e+02	2.516786703601e+02
3.081890243902e+02	2.473414634146e+02
3.374717607973e+02	2.434186046512e+02
3.650875912409e+02	2.395401459854e+02
3.912016129032e+02	2.359112903226e+02
4.160129870130e+02	2.325887445887e+02
1.389082031250e+02	3.095839843750e+02
1.779331896552e+02	3.028814655172e+02
2.142768496420e+02	2.967732696897e+02
2.485116883117e+02	2.908415584416e+02
2.809109195402e+02	2.854597701149e+02
3.112100313480e+02	2.802288401254e+02
3.401666666667e+02	2.754340277778e+02
3.677752808989e+02	2.708089887640e+02
3.935673469388e+02	2.664897959184e+02
4.182294372294e+02	2.622813852814e+02
