4.600027167351e+01	4.599999474772e+01
9.169540964874e+01	4.596415824835e+01
1.375769301746e+02	4.592651045663e+01
1.835592076058e+02	4.583924316385e+01
2.293086772436e+02	4.572271396911e+01
2.753331414571e+02	4.572972584276e+01
3.212072402680e+02	4.567267084359e+01
3.674169198315e+02	4.563946316057e+01
4.139864578013e+02	4.572830268357e+01
4.607035989885e+02	4.584473840806e+01
4.589751127304e+01	9.190400364019e+01
9.160963836766e+01	9.187067084080e+01
1.375659484821e+02	9.192864845596e+01
1.835281747030e+02	9.184128500523e+01
2.292971513616e+02	9.169125170342e+01
2.754363817618e+02	9.179700287793e+01
3.213347161380e+02	9.167132485471e+01
3.672146535250e+02	9.159834042645e+01
4.135924958360e+02	9.165679502185e+01
4.602954704554e+02	9.182560113990e+01
4.597811434238e+01	1.382129048971e+02
9.174954375535e+01	1.382690724348e+02
1.374842274241e+02	1.382049677077e+02
1.833678690861e+02	1.380438338473e+02
2.291768458559e+02	1.379114150028e+02
2.753589102212e+02	1.380783620278e+02
3.212502858952e+02	1.379509512138e+02
3.671970157839e+02	1.378382416798e+02
4.134217851354e+02	1.379172342212e+02
4.598984157409e+02	1.380506629884e+02
4.607118301909e+01	1.840550457806e+02
9.172561066745e+01	1.840577348527e+02
1.373888877579e+02	1.839577579372e+02
1.832962411500e+02	1.838242513460e+02
2.292560943744e+02	1.838781970391e+02
2.753742982128e+02	1.840365878369e+02
3.211731498656e+02	1.838361913213e+02
3.671721058443e+02	1.837617561356e+02
4.133383494455e+02	1.838264285087e+02
4.598390654864e+02	1.839906966464e+02
4.609297473667e+01	2.298219727101e+02
9.158710443951e+01	2.295450625196e+02
1.373214393071e+02	2.296297627786e+02
1.833059078164e+02	2.296074105800e+02
2.292844605268e+02	2.297053149910e+02
2.754122937155e+02	2.299400396873e+02
3.215502285082e+02	2.298534490006e+02
3.676140266049e+02	2.298283190200e+02
4.136700975117e+02	2.297820405169e+02
4.600192811185e+02	2.299360904531e+02
4.623497656746e+01	2.758651189348e+02
9.173856597117e+01	2.755753250323e+02
1.374630708641e+02	2.757249476972e+02
1.834056901382e+02	2.756884063017e+02
2.291581912472e+02	2.755838020471e+02
2.752293151062e+02	2.757779051880e+02
3.214644835179e+02	2.759149349934e+02
3.671950222454e+02	2.756727540493e+02
4.133166474780e+02	2.757009898450e+02
4.601171787112e+02	2.761117280398e+02
4.630060205957e+01	3.216905536924e+02
9.178015547275e+01	3.212407893277e+02
1.375598599368e+02	3.215188999865e+02
1.835991136156e+02	3.215936486434e+02
2.292968066409e+02	3.214737130725e+02
2.750430471072e+02	3.214008857760e+02
3.211960235440e+02	3.215021577696e+02
3.671431527063e+02	3.215014406061e+02
4.131829576130e+02	3.214902629277e+02
4.599178103276e+02	3.218954186761e+02
