5.773056880011e+02
5.766702267534e+02
3.326458801032e+02
2.296340573470e+02
8.272278711599e-02
-9.452138713622e-02
-5.454800228249e-03
3.293286944158e-03

2.778765503088e-02
-3.459492842382e-01
-9.157018295518e-02
-9.981921985580e+01
-6.568839449258e+01
3.272910140992e+02

2.778765503088e-02
-3.459492842382e-01
-9.157018295518e-02
-9.981921985580e+01
-6.568839449258e+01
3.272910140992e+02

2.778765503088e-02
-3.459492842382e-01
-9.157018295518e-02
-9.981921985580e+01
-6.568839449258e+01
3.272910140992e+02

2.778765503088e-02
-3.459492842382e-01
-9.157018295518e-02
-9.981921985580e+01
-6.568839449258e+01
3.272910140992e+02

2.778765503088e-02
-3.459492842382e-01
-9.157018295518e-02
-9.981921985580e+01
-6.568839449258e+01
3.272910140992e+02

