1.546658878505e+02	1.124859813084e+02
1.965615384615e+02	1.115743589744e+02
2.361923076923e+02	1.107912087912e+02
2.742077151335e+02	1.099821958457e+02
3.103450479233e+02	1.091501597444e+02
3.452862068966e+02	1.081620689655e+02
3.781740740741e+02	1.070777777778e+02
4.104357976654e+02	1.062762645914e+02
4.412827868852e+02	1.053524590164e+02
4.710616740088e+02	1.044096916300e+02
1.591822429907e+02	1.535350467290e+02
2.005989717224e+02	1.518200514139e+02
2.400494505495e+02	1.500659340659e+02
2.775402985075e+02	1.485253731343e+02
3.137120253165e+02	1.465949367089e+02
3.481660777385e+02	1.450424028269e+02
3.811758241758e+02	1.431758241758e+02
4.130436507937e+02	1.416587301587e+02
4.438524590164e+02	1.399549180328e+02
4.735829596413e+02	1.383363228700e+02
1.635529411765e+02	1.944282352941e+02
2.046310432570e+02	1.916005089059e+02
2.437774647887e+02	1.889070422535e+02
2.810030211480e+02	1.865015105740e+02
3.168881789137e+02	1.838146964856e+02
3.512500000000e+02	1.813028169014e+02
3.841231343284e+02	1.789402985075e+02
4.156747967480e+02	1.766341463415e+02
4.460729613734e+02	1.744077253219e+02
4.757567567568e+02	1.721981981982e+02
1.677889688249e+02	2.345371702638e+02
2.085796344648e+02	2.308694516971e+02
2.474871794872e+02	2.272364672365e+02
2.844847560976e+02	2.237896341463e+02
3.200064308682e+02	2.204115755627e+02
3.542482269504e+02	2.171099290780e+02
3.867644787645e+02	2.141003861004e+02
4.183591836735e+02	2.112857142857e+02
4.487124463519e+02	2.083347639485e+02
4.779269406393e+02	2.055251141553e+02
1.718382352941e+02	2.744705882353e+02
2.125053191489e+02	2.697154255319e+02
2.511449275362e+02	2.652289855072e+02
2.878984615385e+02	2.609046153846e+02
3.232815533981e+02	2.567766990291e+02
3.571814946619e+02	2.529217081851e+02
3.895155038760e+02	2.491162790698e+02
4.208464730290e+02	2.453983402490e+02
4.510214592275e+02	2.419785407725e+02
4.801100917431e+02	2.386238532110e+02
1.757745098039e+02	3.145269607843e+02
2.163146666667e+02	3.086240000000e+02
2.545327635328e+02	3.032051282051e+02
2.910804953560e+02	2.981424148607e+02
3.263333333333e+02	2.932433333333e+02
3.601756272401e+02	2.886093189964e+02
3.923899613900e+02	2.841003861004e+02
4.234775510204e+02	2.796857142857e+02
4.536400000000e+02	2.757466666667e+02
4.825560747664e+02	2.718925233645e+02
1.795681233933e+02	3.539331619537e+02
2.198873626374e+02	3.472774725275e+02
2.582727272727e+02	3.409242424242e+02
2.947467532468e+02	3.349415584416e+02
3.295684931507e+02	3.291541095890e+02
3.631642335766e+02	3.238321167883e+02
3.954206349206e+02	3.186111111111e+02
4.261950207469e+02	3.136763485477e+02
4.560580357143e+02	3.090625000000e+02
4.850576923077e+02	3.045769230769e+02
