1.896612903226e+02	1.124784946237e+02
2.179346733668e+02	1.117587939698e+02
2.469383886256e+02	1.104644549763e+02
2.768584070796e+02	1.092920353982e+02
3.083628691983e+02	1.081645569620e+02
3.411031746032e+02	1.065674603175e+02
3.750830324910e+02	1.050072202166e+02
4.104163934426e+02	1.033704918033e+02
4.477950310559e+02	1.014968944099e+02
4.868313953488e+02	9.940116279070e+01
1.835602094241e+02	1.416963350785e+02
2.120473933649e+02	1.414360189573e+02
2.417196261682e+02	1.410841121495e+02
2.720000000000e+02	1.404159663866e+02
3.035059288538e+02	1.396996047431e+02
3.365984848485e+02	1.389318181818e+02
3.708815331010e+02	1.381881533101e+02
4.067904761905e+02	1.371015873016e+02
4.445431034483e+02	1.360344827586e+02
4.841444141689e+02	1.347329700272e+02
1.775024630542e+02	1.717241379310e+02
2.060547945205e+02	1.720136986301e+02
2.358800000000e+02	1.723022222222e+02
2.665867768595e+02	1.722809917355e+02
2.985547169811e+02	1.722301886792e+02
3.316571428571e+02	1.721607142857e+02
3.665215946844e+02	1.719501661130e+02
4.028734567901e+02	1.719506172840e+02
4.412853107345e+02	1.717005649718e+02
4.815773195876e+02	1.714226804124e+02
1.711069767442e+02	2.025441860465e+02
2.000444444444e+02	2.034888888889e+02
2.301144067797e+02	2.041567796610e+02
2.610237154150e+02	2.049604743083e+02
2.935214285714e+02	2.055250000000e+02
3.270132013201e+02	2.062046204620e+02
3.621981132075e+02	2.069308176101e+02
3.991461988304e+02	2.075760233918e+02
4.377580645161e+02	2.083467741935e+02
4.786943765281e+02	2.089828850856e+02
1.642133333333e+02	2.342222222222e+02
1.935541666667e+02	2.357333333333e+02
2.239277108434e+02	2.371646586345e+02
2.551476014760e+02	2.384575645756e+02
2.879589041096e+02	2.399178082192e+02
3.220571428571e+02	2.411587301587e+02
3.577784431138e+02	2.428023952096e+02
3.949971830986e+02	2.444901408451e+02
4.344922279793e+02	2.460880829016e+02
4.760941176471e+02	2.478164705882e+02
1.571890756303e+02	2.672394957983e+02
1.866733067729e+02	2.693784860558e+02
2.174758364312e+02	2.712750929368e+02
2.491091549296e+02	2.733380281690e+02
2.824318181818e+02	2.756038961039e+02
3.169107142857e+02	2.778541666667e+02
3.530584958217e+02	2.802701949861e+02
3.910368421053e+02	2.829078947368e+02
4.310380952381e+02	2.855357142857e+02
4.731960784314e+02	2.884901960784e+02
1.501659919028e+02	3.008178137652e+02
1.799924812030e+02	3.035263157895e+02
2.108149466192e+02	3.062669039146e+02
2.428139534884e+02	3.093421926910e+02
2.765284810127e+02	3.124462025316e+02
3.116293103448e+02	3.154741379310e+02
3.482065217391e+02	3.188641304348e+02
3.867025000000e+02	3.225300000000e+02
4.274223744292e+02	3.262945205479e+02
4.702422360248e+02	3.305569358178e+02
