5.419243698558e+01	5.383319461793e+01
1.088259845042e+02	5.419714518615e+01
1.626002662681e+02	5.400499240417e+01
2.164208761007e+02	5.386171230329e+01
2.708665666828e+02	5.402882893520e+01
3.248661086749e+02	5.375901091123e+01
3.788166869326e+02	5.377100579045e+01
4.328805758315e+02	5.375924056421e+01
4.868903288652e+02	5.360153388415e+01
5.407914559482e+02	5.335068413937e+01
5.411816040500e+01	1.074872092614e+02
1.089293598249e+02	1.079760911296e+02
1.630038006157e+02	1.080736270710e+02
2.168531898153e+02	1.079677716380e+02
2.709893741587e+02	1.079206566895e+02
3.250131771162e+02	1.077699711991e+02
3.789501163688e+02	1.076966129700e+02
4.329303609151e+02	1.076344162733e+02
4.870319134789e+02	1.075928123746e+02
5.409093847442e+02	1.072557726068e+02
5.433633137055e+01	1.615314686391e+02
1.087812449758e+02	1.617777766156e+02
1.630434529782e+02	1.620064510331e+02
2.168915360870e+02	1.619445567475e+02
2.709861108341e+02	1.618285128058e+02
3.249161745452e+02	1.616072979523e+02
3.787966109203e+02	1.614738813118e+02
4.328387223164e+02	1.615082475645e+02
4.869815814832e+02	1.616170269868e+02
5.410250619415e+02	1.615171368135e+02
5.449464050426e+01	2.152799763087e+02
1.090044816518e+02	2.155166872950e+02
1.630698819944e+02	2.156813928933e+02
2.168803939107e+02	2.156168638172e+02
2.709395978308e+02	2.155483125064e+02
3.248857584470e+02	2.153697815525e+02
3.788840203654e+02	2.153969122980e+02
4.328752240466e+02	2.153811118331e+02
4.869583936982e+02	2.154484240387e+02
5.410732536943e+02	2.155178515967e+02
5.463685839010e+01	2.690259679614e+02
1.090810047592e+02	2.692626262904e+02
1.630827652315e+02	2.693777764187e+02
2.168429525473e+02	2.693366444525e+02
2.709130202380e+02	2.693207347241e+02
3.248543590199e+02	2.692158682037e+02
3.788891806926e+02	2.693144144572e+02
4.327659183627e+02	2.692386719944e+02
4.868536574935e+02	2.693174988376e+02
5.409891609242e+02	2.694564999543e+02
5.497649857498e+01	3.232113656224e+02
1.092435121845e+02	3.233667062286e+02
1.630629046158e+02	3.234615513984e+02
2.167317928448e+02	3.234589147072e+02
2.708368333370e+02	3.234815930614e+02
3.247928911551e+02	3.234812857468e+02
3.786934356214e+02	3.235085807596e+02
4.327089408841e+02	3.235663230548e+02
4.867671834223e+02	3.236461158658e+02
5.407691974715e+02	3.237215103838e+02
5.514684452929e+01	3.769410650357e+02
1.093408955894e+02	3.771435860344e+02
1.629148455841e+02	3.771822998275e+02
2.166113385420e+02	3.772253014030e+02
2.706850587465e+02	3.773052364669e+02
3.247895067949e+02	3.773831182206e+02
3.785637790866e+02	3.774047812630e+02
4.325776873588e+02	3.775067701517e+02
4.866113585777e+02	3.776029048155e+02
5.405129912983e+02	3.776488610590e+02
